\relax 
\providecommand\hyper@newdestlabel[2]{}
\catcode `"\active 
\providecommand\HyperFirstAtBeginDocument{\AtBeginDocument}
\HyperFirstAtBeginDocument{\ifx\hyper@anchor\@undefined
\global\let\oldcontentsline\contentsline
\gdef\contentsline#1#2#3#4{\oldcontentsline{#1}{#2}{#3}}
\global\let\oldnewlabel\newlabel
\gdef\newlabel#1#2{\newlabelxx{#1}#2}
\gdef\newlabelxx#1#2#3#4#5#6{\oldnewlabel{#1}{{#2}{#3}}}
\AtEndDocument{\ifx\hyper@anchor\@undefined
\let\contentsline\oldcontentsline
\let\newlabel\oldnewlabel
\fi}
\fi}
\global\let\hyper@last\relax 
\gdef\HyperFirstAtBeginDocument#1{#1}
\providecommand\HyField@AuxAddToFields[1]{}
\providecommand\HyField@AuxAddToCoFields[2]{}
\select@language{ngerman}
\@writefile{toc}{\select@language{ngerman}}
\@writefile{lof}{\select@language{ngerman}}
\@writefile{lot}{\select@language{ngerman}}
\@writefile{toc}{\contentsline {section}{\numberline {1}Biographie}{1}{section.1}}
\@writefile{toc}{\contentsline {section}{\numberline {2}Projektbeschrieb}{1}{section.2}}
\@writefile{toc}{\contentsline {subsection}{\numberline {2.1}LP Inhalt}{1}{subsection.2.1}}
\@writefile{toc}{\contentsline {subsection}{\numberline {2.2}Planung und Partner}{1}{subsection.2.2}}
\@writefile{toc}{\contentsline {subsection}{\numberline {2.3}Bezug zu der Stadt Chur}{1}{subsection.2.3}}
\@writefile{toc}{\contentsline {subsubsection}{\numberline {2.3.1}Inhaltlich}{1}{subsubsection.2.3.1}}
\@writefile{toc}{\contentsline {subsubsection}{\numberline {2.3.2}Sprachlich}{1}{subsubsection.2.3.2}}
\@writefile{toc}{\contentsline {subsection}{\numberline {2.4}Bezug zum Taminatal}{1}{subsection.2.4}}
\@writefile{toc}{\contentsline {subsection}{\numberline {2.5}Videoclip}{2}{subsection.2.5}}
\@writefile{toc}{\contentsline {subsection}{\numberline {2.6}Ver\IeC {\"o}ffentlichung}{2}{subsection.2.6}}
\@writefile{toc}{\contentsline {section}{\numberline {3}Vorproduktionen/Demoproduktionen}{2}{section.3}}
\@writefile{toc}{\contentsline {section}{\numberline {4}Budget und Finanzierungsplan}{2}{section.4}}
\@writefile{toc}{\contentsline {section}{\numberline {5}Weiterf\IeC {\"u}hrende Links / H\IeC {\"o}rproben }{3}{section.5}}
