# Fdb version 3
["lualatex"] 1674227965 "kulturfachstelle_chur.tex" "kulturfachstelle_chur.pdf" "kulturfachstelle_chur" 1674227966
  "../Kaufmann_Banner.jpg" 1674218105 54466 65f8f272ef70f9d0bd48294f84274da1 ""
  "/Users/rleu/Library/texlive/2022/texmf-var/luatex-cache/generic/fonts/otl/lmroman10-regular.luc" 1674206843 127327 a10453e432aae9a08361721794e3f42f ""
  "/Users/rleu/Library/texlive/2022/texmf-var/luatex-cache/generic/fonts/otl/lmroman12-bold.luc" 1674206844 128299 17676548060dd02b4f622e87d441d2a7 ""
  "/Users/rleu/Library/texlive/2022/texmf-var/luatex-cache/generic/fonts/otl/lmroman12-regular.luc" 1674206844 127670 564c90a4029a7f4850ec937f07afdc34 ""
  "/Users/rleu/Library/texlive/2022/texmf-var/luatex-cache/generic/names/luaotfload-names.luc.gz" 1674206842 346138 4ed207bde825cbc7a1aa81da2074095a ""
  "/usr/local/texlive/2022/texmf-dist/fonts/opentype/public/lm/lmroman10-regular.otf" 1255129361 111536 ae9d1b331000d544f47e5223081b7b54 ""
  "/usr/local/texlive/2022/texmf-dist/fonts/opentype/public/lm/lmroman12-bold.otf" 1255129361 110496 b9c8767d4cc3bf3f4b21f676bf89aa78 ""
  "/usr/local/texlive/2022/texmf-dist/fonts/opentype/public/lm/lmroman12-regular.otf" 1255129361 110400 d844cffffa1af59f9d2bb1bfdb6f1a2c ""
  "/usr/local/texlive/2022/texmf-dist/fonts/tfm/public/cm/cmex10.tfm" 1136768653 992 662f679a0b3d2d53c1b94050fdaa3f50 ""
  "/usr/local/texlive/2022/texmf-dist/fonts/tfm/public/cm/cmmi12.tfm" 1136768653 1524 4414a8315f39513458b80dfc63bff03a ""
  "/usr/local/texlive/2022/texmf-dist/fonts/tfm/public/cm/cmmi6.tfm" 1136768653 1512 f21f83efb36853c0b70002322c1ab3ad ""
  "/usr/local/texlive/2022/texmf-dist/fonts/tfm/public/cm/cmmi8.tfm" 1136768653 1520 eccf95517727cb11801f4f1aee3a21b4 ""
  "/usr/local/texlive/2022/texmf-dist/fonts/tfm/public/cm/cmr12.tfm" 1136768653 1288 655e228510b4c2a1abe905c368440826 ""
  "/usr/local/texlive/2022/texmf-dist/fonts/tfm/public/cm/cmr6.tfm" 1136768653 1300 b62933e007d01cfd073f79b963c01526 ""
  "/usr/local/texlive/2022/texmf-dist/fonts/tfm/public/cm/cmr8.tfm" 1136768653 1292 21c1c5bfeaebccffdb478fd231a0997d ""
  "/usr/local/texlive/2022/texmf-dist/fonts/tfm/public/cm/cmsy10.tfm" 1136768653 1124 6c73e740cf17375f03eec0ee63599741 ""
  "/usr/local/texlive/2022/texmf-dist/fonts/tfm/public/cm/cmsy6.tfm" 1136768653 1116 933a60c408fc0a863a92debe84b2d294 ""
  "/usr/local/texlive/2022/texmf-dist/fonts/tfm/public/cm/cmsy8.tfm" 1136768653 1120 8b7d695260f3cff42e636090a8002094 ""
  "/usr/local/texlive/2022/texmf-dist/tex/context/base/mkii/supp-pdf.mkii" 1461363279 71627 94eb9990bed73c364d7f53f960cc8c5b ""
  "/usr/local/texlive/2022/texmf-dist/tex/generic/babel-german/ngerman.ldf" 1614462139 2289 b1d356015c8fd065cb4437d567449559 ""
  "/usr/local/texlive/2022/texmf-dist/tex/generic/babel-german/ngermanb.ldf" 1614462139 7752 76871ff65dd4689e1a548995ac96d8c3 ""
  "/usr/local/texlive/2022/texmf-dist/tex/generic/babel/babel.sty" 1645915365 147649 823237dc86e8acfaa45204ca8085a60e ""
  "/usr/local/texlive/2022/texmf-dist/tex/generic/babel/locale/fr/babel-fr.ini" 1594156455 4310 2bd5082bc55c717baa69755974fbaf31 ""
  "/usr/local/texlive/2022/texmf-dist/tex/generic/babel/locale/fr/babel-french.tex" 1498512262 336 f27942ba034bde85aef544115290ec5d ""
  "/usr/local/texlive/2022/texmf-dist/tex/generic/babel/luababel.def" 1645915365 58733 a91750ddd470f04246efe9a2a5a33085 ""
  "/usr/local/texlive/2022/texmf-dist/tex/generic/bigintcalc/bigintcalc.sty" 1576625341 40635 c40361e206be584d448876bba8a64a3b ""
  "/usr/local/texlive/2022/texmf-dist/tex/generic/bitset/bitset.sty" 1576016050 33961 6b5c75130e435b2bfdb9f480a09a39f9 ""
  "/usr/local/texlive/2022/texmf-dist/tex/generic/etexcmds/etexcmds.sty" 1576625273 7734 b98cbb34c81f667027c1e3ebdbfce34b ""
  "/usr/local/texlive/2022/texmf-dist/tex/generic/gettitlestring/gettitlestring.sty" 1576625223 8371 9d55b8bd010bc717624922fb3477d92e ""
  "/usr/local/texlive/2022/texmf-dist/tex/generic/hyph-utf8/loadhyph/loadhyph-de-1996.tex" 1616365115 1319 90e3043e2c119e84eacf288411a3e5fc ""
  "/usr/local/texlive/2022/texmf-dist/tex/generic/hyph-utf8/loadhyph/loadhyph-fr.tex" 1616365115 1204 e649c79bd46c2809356fb1e250cb5755 ""
  "/usr/local/texlive/2022/texmf-dist/tex/generic/hyph-utf8/patterns/quote/hyph-quote-fr.tex" 1463215544 768 932fb2de51061ce3b014d22fad1d7ffe ""
  "/usr/local/texlive/2022/texmf-dist/tex/generic/hyph-utf8/patterns/tex/hyph-de-1996.tex" 1616365115 261255 ba96fd16e3f4107a982ad26c7c7d9037 ""
  "/usr/local/texlive/2022/texmf-dist/tex/generic/hyph-utf8/patterns/tex/hyph-fr.tex" 1554502952 30353 4479446a11e1366b5a18e408bfbc3c19 ""
  "/usr/local/texlive/2022/texmf-dist/tex/generic/iftex/iftex.sty" 1644112042 7237 bdd120a32c8fdb4b433cf9ca2e7cd98a ""
  "/usr/local/texlive/2022/texmf-dist/tex/generic/iftex/ifvtex.sty" 1572645307 1057 525c2192b5febbd8c1f662c9468335bb ""
  "/usr/local/texlive/2022/texmf-dist/tex/generic/infwarerr/infwarerr.sty" 1575499628 8356 7bbb2c2373aa810be568c29e333da8ed ""
  "/usr/local/texlive/2022/texmf-dist/tex/generic/intcalc/intcalc.sty" 1576625065 31769 002a487f55041f8e805cfbf6385ffd97 ""
  "/usr/local/texlive/2022/texmf-dist/tex/generic/kvdefinekeys/kvdefinekeys.sty" 1576878844 5412 d5a2436094cd7be85769db90f29250a6 ""
  "/usr/local/texlive/2022/texmf-dist/tex/generic/kvsetkeys/kvsetkeys.sty" 1576624944 13807 952b0226d4efca026f0e19dd266dcc22 ""
  "/usr/local/texlive/2022/texmf-dist/tex/generic/ltxcmds/ltxcmds.sty" 1600895880 17859 4409f8f50cd365c68e684407e5350b1b ""
  "/usr/local/texlive/2022/texmf-dist/tex/generic/pdfescape/pdfescape.sty" 1576015897 19007 15924f7228aca6c6d184b115f4baa231 ""
  "/usr/local/texlive/2022/texmf-dist/tex/generic/pdftexcmds/pdftexcmds.lua" 1593380077 9447 5e9f52f1871707a5d27dea360afbe4cb ""
  "/usr/local/texlive/2022/texmf-dist/tex/generic/pdftexcmds/pdftexcmds.sty" 1593379760 20089 80423eac55aa175305d35b49e04fe23b ""
  "/usr/local/texlive/2022/texmf-dist/tex/generic/stringenc/stringenc.sty" 1575152242 21514 b7557edcee22835ef6b03ede1802dad4 ""
  "/usr/local/texlive/2022/texmf-dist/tex/generic/unicode-data/CaseFolding.txt" 1631739099 84688 8e67e575f505f0ec3d23bc8a0961894e ""
  "/usr/local/texlive/2022/texmf-dist/tex/generic/unicode-data/PropList.txt" 1631739099 130164 82b7580d6edaca727c23d8bf9ec00aa5 ""
  "/usr/local/texlive/2022/texmf-dist/tex/generic/unicode-data/ScriptExtensions.txt" 1631739099 21969 531ffba1234ef2c233f4ffa1bdc9c58f ""
  "/usr/local/texlive/2022/texmf-dist/tex/generic/unicode-data/Scripts.txt" 1631739099 181635 b1d22e9d6073db71dc94e5f0c2f1ab6b ""
  "/usr/local/texlive/2022/texmf-dist/tex/generic/unicode-data/SpecialCasing.txt" 1631739099 16830 24748f42075a36b6d7521d0867a90717 ""
  "/usr/local/texlive/2022/texmf-dist/tex/generic/unicode-data/UnicodeData.txt" 1631739099 1897793 c98cbeae07758b826ef080c65b9d4d61 ""
  "/usr/local/texlive/2022/texmf-dist/tex/generic/unicode-data/WordBreakProperty.txt" 1631739099 107025 7c1847e08aecbf5069b4bb31cf508810 ""
  "/usr/local/texlive/2022/texmf-dist/tex/generic/uniquecounter/uniquecounter.sty" 1576624663 7008 f92eaa0a3872ed622bbf538217cd2ab7 ""
  "/usr/local/texlive/2022/texmf-dist/tex/latex/auxhook/auxhook.sty" 1576625391 3935 57aa3c3e203a5c2effb4d2bd2efbc323 ""
  "/usr/local/texlive/2022/texmf-dist/tex/latex/base/atbegshi-ltx.sty" 1636758526 3034 3bfb87122e6fa8758225c0dd3cbaceba ""
  "/usr/local/texlive/2022/texmf-dist/tex/latex/base/atveryend-ltx.sty" 1636758526 2462 754d6b31b2ab5a09bb72c348ace2ec75 ""
  "/usr/local/texlive/2022/texmf-dist/tex/latex/base/inputenc.sty" 1622581934 5049 969aec05d5f39c43f8005910498fcf90 ""
  "/usr/local/texlive/2022/texmf-dist/tex/latex/base/letter.cls" 1622581934 13728 e48c814e2de68a7ee7890cc121df97a4 ""
  "/usr/local/texlive/2022/texmf-dist/tex/latex/base/ltluatex.lua" 1636758526 19214 9fefc6dff80101966499ea0d8ae2e503 ""
  "/usr/local/texlive/2022/texmf-dist/tex/latex/base/size12.clo" 1636758526 8449 bc7344e882df4d7e51c046514dee83e4 ""
  "/usr/local/texlive/2022/texmf-dist/tex/latex/base/ts1cmr.fd" 1622581934 2430 06a89bcded389391906798ea7a3f3aaa ""
  "/usr/local/texlive/2022/texmf-dist/tex/latex/csquotes/csquotes.cfg" 1429144587 7068 06f8d141725d114847527a66439066b6 ""
  "/usr/local/texlive/2022/texmf-dist/tex/latex/csquotes/csquotes.def" 1614030765 20781 dc1bec6693d5466d8972ecc6b81f9f0b ""
  "/usr/local/texlive/2022/texmf-dist/tex/latex/csquotes/csquotes.sty" 1614030765 62518 6e0d74482f5cb16b3b0755031e72faf1 ""
  "/usr/local/texlive/2022/texmf-dist/tex/latex/epstopdf-pkg/epstopdf-base.sty" 1579991033 13886 d1306dcf79a944f6988e688c1785f9ce ""
  "/usr/local/texlive/2022/texmf-dist/tex/latex/etoolbox/etoolbox.sty" 1601931149 46845 3b58f70c6e861a13d927bff09d35ecbc ""
  "/usr/local/texlive/2022/texmf-dist/tex/latex/fancyhdr/fancyhdr.sty" 1612734021 17086 7ed8cbc4d361ec87392817e0dd4f65ec ""
  "/usr/local/texlive/2022/texmf-dist/tex/latex/geometry/geometry.sty" 1578002852 41601 9cf6c5257b1bc7af01a58859749dd37a ""
  "/usr/local/texlive/2022/texmf-dist/tex/latex/graphics-cfg/graphics.cfg" 1465944070 1224 978390e9c2234eab29404bc21b268d1e ""
  "/usr/local/texlive/2022/texmf-dist/tex/latex/graphics-def/luatex.def" 1622667507 19010 055822b35577472bb450b4662bbf28d9 ""
  "/usr/local/texlive/2022/texmf-dist/tex/latex/graphics/graphics.sty" 1622581934 18399 7e40f80366dffb22c0e7b70517db5cb4 ""
  "/usr/local/texlive/2022/texmf-dist/tex/latex/graphics/graphicx.sty" 1636758526 7996 a8fb260d598dcaf305a7ae7b9c3e3229 ""
  "/usr/local/texlive/2022/texmf-dist/tex/latex/graphics/keyval.sty" 1622581934 2671 4de6781a30211fe0ea4c672e4a2a8166 ""
  "/usr/local/texlive/2022/texmf-dist/tex/latex/graphics/trig.sty" 1636758526 4009 187ea2dc3194cd5a76cd99a8d7a6c4d0 ""
  "/usr/local/texlive/2022/texmf-dist/tex/latex/hycolor/hycolor.sty" 1580250785 17914 4c28a13fc3d975e6e81c9bea1d697276 ""
  "/usr/local/texlive/2022/texmf-dist/tex/latex/hyperref/hluatex.def" 1645564115 50811 6324584bc3a40c51d81155ce5469d928 ""
  "/usr/local/texlive/2022/texmf-dist/tex/latex/hyperref/hyperref.sty" 1645564115 220999 6145ea83914c186e178d1d31c50b37df ""
  "/usr/local/texlive/2022/texmf-dist/tex/latex/hyperref/nameref.sty" 1612734870 13242 133e617c5eebffdd05e421624022b267 ""
  "/usr/local/texlive/2022/texmf-dist/tex/latex/hyperref/pd1enc.def" 1645564115 14132 e8e7e61e51ade521a7238fac8362786c ""
  "/usr/local/texlive/2022/texmf-dist/tex/latex/hyperref/puenc.def" 1645564115 117004 ed1c2cc82bb9836e9d59549dd8c33098 ""
  "/usr/local/texlive/2022/texmf-dist/tex/latex/kvoptions/kvoptions.sty" 1602274869 22521 d2fceb764a442a2001d257ef11db7618 ""
  "/usr/local/texlive/2022/texmf-dist/tex/latex/l3backend/l3backend-luatex.def" 1644269979 30292 5e0b0f0ef907fab549ffef3627107d14 ""
  "/usr/local/texlive/2022/texmf-dist/tex/latex/l3kernel/expl3.lua" 1642022539 15627 866398a1358608205cb87da529bd41e8 ""
  "/usr/local/texlive/2022/texmf-dist/tex/latex/l3kernel/expl3.sty" 1645736062 6107 e082261f9677386795d8bf6b6254fa9d ""
  "/usr/local/texlive/2022/texmf-dist/tex/latex/l3packages/l3keys2e/l3keys2e.sty" 1642022539 4674 ac560df2ef76ab2c406a4948a48f79f8 ""
  "/usr/local/texlive/2022/texmf-dist/tex/latex/latexconfig/epstopdf-sys.cfg" 1279039959 678 4792914a8f45be57bb98413425e4c7af ""
  "/usr/local/texlive/2022/texmf-dist/tex/latex/latexconfig/lualatexquotejobname.lua" 1308175312 1031 977f79ff10b802fc398926378bec58e9 ""
  "/usr/local/texlive/2022/texmf-dist/tex/latex/letltxmacro/letltxmacro.sty" 1575499565 5766 13a9e8766c47f30327caf893ece86ac8 ""
  "/usr/local/texlive/2022/texmf-dist/tex/latex/lipsum/lipsum.ltd.tex" 1632168149 95525 6fd0552101a6b1f9b7a84b402ec435ba ""
  "/usr/local/texlive/2022/texmf-dist/tex/latex/lipsum/lipsum.sty" 1632168149 14690 c2c754218a7108db7823a4839c1bc3cd ""
  "/usr/local/texlive/2022/texmf-dist/tex/latex/ragged2e/ragged2e.sty" 1639603888 9244 53da791cc5f775633a8a852b08533fe2 ""
  "/usr/local/texlive/2022/texmf-dist/tex/latex/refcount/refcount.sty" 1576624809 9878 9e94e8fa600d95f9c7731bb21dfb67a4 ""
  "/usr/local/texlive/2022/texmf-dist/tex/latex/rerunfilecheck/rerunfilecheck.sty" 1575674187 9715 b051d5b493d9fe5f4bc251462d039e5f ""
  "/usr/local/texlive/2022/texmf-dist/tex/latex/tools/layout.sty" 1622581934 14907 c3c1291fb67ed663d3bc488d4a10fe27 ""
  "/usr/local/texlive/2022/texmf-dist/tex/latex/url/url.sty" 1388531844 12796 8edb7d69a20b857904dd0ea757c14ec9 ""
  "/usr/local/texlive/2022/texmf-dist/tex/luatex/lua-uni-algos/lua-uni-normalize.lua" 1645915452 21269 eb4154856f0afe9e8d886dbf6922dcc6 ""
  "/usr/local/texlive/2022/texmf-dist/tex/luatex/lua-uni-algos/lua-uni-parse.lua" 1645915452 2115 596f0e8384e97c26c78a8e88c65a7843 ""
  "/usr/local/texlive/2022/texmf-dist/tex/luatex/lualibs/lualibs-basic-merged.lua" 1621631268 131865 7823724834e59b4ec715d8bb8cbaeb54 ""
  "/usr/local/texlive/2022/texmf-dist/tex/luatex/lualibs/lualibs-basic.lua" 1621631268 2718 ab2094ad7c4dbeee0586e66867657528 ""
  "/usr/local/texlive/2022/texmf-dist/tex/luatex/lualibs/lualibs-compat.lua" 1367794330 603 398583cb619d20952d67edcedae41608 ""
  "/usr/local/texlive/2022/texmf-dist/tex/luatex/lualibs/lualibs-extended-merged.lua" 1621631268 111260 42b0c7151f556bf3efa50f07f49b8db0 ""
  "/usr/local/texlive/2022/texmf-dist/tex/luatex/lualibs/lualibs-extended.lua" 1621631268 4859 0a4cc7ac69f1ddc17187973389446292 ""
  "/usr/local/texlive/2022/texmf-dist/tex/luatex/lualibs/lualibs.lua" 1621631268 3780 a9bd8ce659ead1f89cff36820bd2de52 ""
  "/usr/local/texlive/2022/texmf-dist/tex/luatex/luaotfload/fontloader-2022-02-24.lua" 1645827250 879568 4dc8ce07471f8af7aa98d835df654768 ""
  "/usr/local/texlive/2022/texmf-dist/tex/luatex/luaotfload/fontloader-basics-gen.lua" 1645997189 12745 4bc43036e9796fccb0b8869f4b05bf2e ""
  "/usr/local/texlive/2022/texmf-dist/tex/luatex/luaotfload/luaotfload-auxiliary.lua" 1647637340 32597 56ff5ca809e974b5630cdce6d287982d ""
  "/usr/local/texlive/2022/texmf-dist/tex/luatex/luaotfload/luaotfload-case.lua" 1609451516 6809 6c20d5dc2b2b4227f873e7df0fd25316 ""
  "/usr/local/texlive/2022/texmf-dist/tex/luatex/luaotfload/luaotfload-colors.lua" 1647637340 15954 5989cddee9b5371697c559ec201e27e7 ""
  "/usr/local/texlive/2022/texmf-dist/tex/luatex/luaotfload/luaotfload-configuration.lua" 1647637340 31223 5b294133cd45a4a6f4b94388dbfc2964 ""
  "/usr/local/texlive/2022/texmf-dist/tex/luatex/luaotfload/luaotfload-database.lua" 1647637340 134114 315be26e69005984329b81aa331e1365 ""
  "/usr/local/texlive/2022/texmf-dist/tex/luatex/luaotfload/luaotfload-embolden.lua" 1647637340 1004 04466a99226e5724ef9287ec1a28263a ""
  "/usr/local/texlive/2022/texmf-dist/tex/luatex/luaotfload/luaotfload-fallback.lua" 1647637340 4047 e218dc2d291d024f2d1b45da766f6cfc ""
  "/usr/local/texlive/2022/texmf-dist/tex/luatex/luaotfload/luaotfload-features.lua" 1647637340 33149 26ff83b26be22a1962db807b51a362dc ""
  "/usr/local/texlive/2022/texmf-dist/tex/luatex/luaotfload/luaotfload-harf-define.lua" 1647637340 18970 16079aa19c3862e2e8f6b8cb91cf037a ""
  "/usr/local/texlive/2022/texmf-dist/tex/luatex/luaotfload/luaotfload-harf-plug.lua" 1647637340 42240 09076cf26ee8160a8eb667c6be500069 ""
  "/usr/local/texlive/2022/texmf-dist/tex/luatex/luaotfload/luaotfload-harf-var-cff2.lua" 1647637340 14279 1ddc491d739900212c540b4ec73e9eff ""
  "/usr/local/texlive/2022/texmf-dist/tex/luatex/luaotfload/luaotfload-harf-var-t2-writer.lua" 1647637340 4050 7fe81398f3e2a4a9477ba45f396d5563 ""
  "/usr/local/texlive/2022/texmf-dist/tex/luatex/luaotfload/luaotfload-harf-var-ttf.lua" 1647637340 20038 e49220e9e6fd5a9f9536cbc4eca8c1bb ""
  "/usr/local/texlive/2022/texmf-dist/tex/luatex/luaotfload/luaotfload-init.lua" 1647637340 19746 8acaf9e42a9c9fa1c398a0944d1a4d50 ""
  "/usr/local/texlive/2022/texmf-dist/tex/luatex/luaotfload/luaotfload-letterspace.lua" 1647637340 20268 000b624f54d934aff044862b7a64d4e2 ""
  "/usr/local/texlive/2022/texmf-dist/tex/luatex/luaotfload/luaotfload-loaders.lua" 1647637340 8840 e9f98d4904d245facab3932c505ea0f8 ""
  "/usr/local/texlive/2022/texmf-dist/tex/luatex/luaotfload/luaotfload-log.lua" 1647637340 11323 22964216fb42c7b07623fc43da5149ac ""
  "/usr/local/texlive/2022/texmf-dist/tex/luatex/luaotfload/luaotfload-main.lua" 1609451516 275 b19c9cc34cf1d676c39f872cfb41aef6 ""
  "/usr/local/texlive/2022/texmf-dist/tex/luatex/luaotfload/luaotfload-multiscript.lua" 1647637340 15068 3f88fec616eb7b3f56fc5932a0f1e4d8 ""
  "/usr/local/texlive/2022/texmf-dist/tex/luatex/luaotfload/luaotfload-notdef.lua" 1647637340 12224 c06af0d71ab75a68f3445ecc6fa4e7b3 ""
  "/usr/local/texlive/2022/texmf-dist/tex/luatex/luaotfload/luaotfload-parsers.lua" 1647637340 31007 a7eb408eae165d6a61d11a705cab1b98 ""
  "/usr/local/texlive/2022/texmf-dist/tex/luatex/luaotfload/luaotfload-resolvers.lua" 1647637340 10984 7fd3c8d3d5a76c89227110177e7979f3 ""
  "/usr/local/texlive/2022/texmf-dist/tex/luatex/luaotfload/luaotfload-scripts.lua" 1647637340 2506 b987b6592183d5cc5ec858d5792cc381 ""
  "/usr/local/texlive/2022/texmf-dist/tex/luatex/luaotfload/luaotfload-status.lua" 1647637340 6317 e7fa94f6b0c4ea27bbd6cc0185b5713d ""
  "/usr/local/texlive/2022/texmf-dist/tex/luatex/luaotfload/luaotfload-suppress.lua" 1647637340 2582 ec8f80689df7ba440286d00bcf6ed680 ""
  "/usr/local/texlive/2022/texmf-dist/tex/luatex/luaotfload/luaotfload-szss.lua" 1647637340 6309 5d97cb13052848afe1aba7e7ebc1469c ""
  "/usr/local/texlive/2022/texmf-dist/tex/luatex/luaotfload/luaotfload-tounicode.lua" 1647637340 7528 fb7b0f47a74b414177bea5f982abf1de ""
  "/usr/local/texlive/2022/texmf-dist/tex/luatex/luaotfload/luaotfload-unicode.lua" 1647637340 7589 65c7651d19fe06ec17196c22c533f768 ""
  "/usr/local/texlive/2022/texmf-dist/tex/luatex/luaotfload/luaotfload.lua" 1647637340 13565 30cc2d8cecf79afb1abb4d5c12eb919a ""
  "/usr/local/texlive/2022/texmf-var/fonts/map/pdftex/updmap/pdftex.map" 1647878959 4410336 7d30a02e9fa9a16d7d1f8d037ba69641 ""
  "/usr/local/texlive/2022/texmf-var/tex/generic/config/language.dat" 1647878956 6627 cbdbf72b83b12733508e4ca40fb3403d ""
  "/usr/local/texlive/2022/texmf-var/web2c/luahbtex/lualatex.fmt" 1674134868 4558588 24f39134c654ea087e9e7fa9723cef8b ""
  "kulturfachstelle_chur.aux" 1674227966 877 41b14942db44e866d43d71bd3339ecb3 "lualatex"
  "kulturfachstelle_chur.out" 0 -1 0 "lualatex"
  "kulturfachstelle_chur.tex" 1674227871 1676 10267c23857bf2262fabb0b6811f7fb9 ""
  (generated)
  "kulturfachstelle_chur.aux"
  "kulturfachstelle_chur.log"
  "kulturfachstelle_chur.out"
  "kulturfachstelle_chur.pdf"
